{
  "Cell": {
    "cm_config": {
      "lineNumbers": true
    }
  },
  "Notebook": {
    "Toolbar": true,
    "Header": true
  },
  "load_extensions": {
    "codefolding/main": true,
    "codemirror_mode_extensions/main": true,
    "collapsible_headings/main": true,
    "code_prettify/code_prettify": true,
    "code_font_size/code_font_size": true,
    "calysto/cell-tools/main": true,
    "cell_filter/cell_filter": true,
    "Jupyter-multi_outputs/lc_multi_outputs/nbextension/main": true,
    "lc_multi_outputs/nbextension/main": true,
    "livemdpreview/livemdpreview": true,
    "qtconsole/qtconsole": true,
    "runtools/main": true,
    "python-markdown/main": true,
    "nbextension-scratchpad/main": true,
    "scratchpad/main": true,
    "toc2/main": true,
    "table_beautifier/main": true,
    "snippets/main": true,
    "toggle_all_line_numbers/main": true,
    "varInspector/main": true,
    "skip-traceback/main": true,
    "select_keymap/main": true,
    "limit_output/main": true,
    "keyboard_shortcut_editor/main": true,
    "help_panel/help_panel": true,
    "hide_header/main": true,
    "export_embedded/main": true,
    "execute_time/ExecuteTime": true,
    "execution_dependencies/execution_dependencies": true,
    "init_cell/main": true,
    "datestamper/main": true,
    "addbefore/main": true,
    "calysto/annotate/main": true,
    "code_prettify/2to3": true,
    "code_prettify/autopep8": true,
    "autosavetime/main": true,
    "comment-uncomment/main": true,
    "rubberband/main": true,
    "splitcell/splitcell": true,
    "calysto/submit/main": true,
    "move_selected_cells/main": true,
    "freeze/main": true,
    "jupyter_full_width": true,
    "hinterland/hinterland": true,
    "nblint": true,
    "nbdime": true,
    "lib/python3.7/site-packages/nbdime/notebook_ext/index.js": true,
    "lib/python3.7/site-packages/nbdime/webapp/": true,
    "lib/python3.7/site-packages/nbdime/webapp/nb_server_extension.py": true,
    "nbdime/index.js": true,
    "nbdime/index": true,
    "nblint/main": true,
    "nblint/index": true,
    "nblint/__init__": true,
    "nblint/*": true,
    "nbdime/extension": true,
    "jupyter_notebook_configurator": true,
    "jupyter_notebook_configurator/main": true,
    "jupyter_notebook_configurator/index": true,
    "jupyter-notebook_configurator/index": true,
    "jupyter_nbextensions_configurator": true,
    "jupyter_nbextensions_configurator/main": true,
    "jupyter_nbextensions_configurator/index": true,
    "jupyter_nbextensions_configurator/tree": true,
    "nbextensions": true,
    "jupyter_contrib_nbextensions": true,
    "lib/python3.7/site-packages/nbextensions-0.1.0.dist-info/": true,
    "lib/python3.7/site-packages/jupyter_contrib_nbextensions/": true,
    "jupyter_contrib_nbextensions/maib": true,
    "jupyter_contrib_nbextensions/main": true,
    "nbextensions_configurator/config_menu/main": true,
    "nbextensions/Jupyter-multi_outputs/main": true,
    "nbextensions/Jupyter-multi_outputs/lc_multi_outputs/nbextension/main": true,
    "code_prettify/main": true,
    "codemirror": true,
    "hide_input/main": true,
    "jupyter-js-widgets/extension": true,
    "livemdpreview/main": true,
    "notify/notify": true,
    "printview/main": true,
    "search-replace/main": true,
    "snippets_menu/main": true,
    "zenmode/main": true,
    "theme_toggle": true,
    "jupyter_contrib_nbextensions/nbextensions/execute_time/ExecuteTime": true,
    "calysto/document-tools/main": true,
    "jupyter_contrib_nbextensions/nbextensions/table_beautifier/main": true,
    "jupyter_contrib_nbextensions/nbextensions/varInspector/main": true,
    "jupyter_contrib_nbextensions/nbextensions/toggle_all_line_numbers/main": true,
    "jupyter_contrib_nbextensions/nbextensions/splitcell/splitcell": true,
    "jupyter_contrib_nbextensions/nbextensions/scratchpad/main": true,
    "jupyter_contrib_nbextensions/nbextensions/runtools/main": true,
    "jupyter_contrib_nbextensions/nbextensions/rubberband/main": true,
    "jupyter_contrib_nbextensions/nbextensions/freeze/main": true,
    "jupyter_contrib_nbextensions/nbextensions/execution_dependencies/execution_dependencies": true,
    "jupyter_contrib_nbextensions/nbextensions/codemirror_mode_extensions/main": true,
    "jupyter_contrib_nbextensions/nbextensions/codefolding/main": true,
    "jupyter_contrib_nbextensions/nbextensions/code_font_size/code_font_size": true,
    "jupyter_contrib_nbextensions/nbextensions/cell_filter/cell_filter": true,
    "jupyter_contrib_nbextensions/nbextensions/addbefore/main": true,
    "jupyter_contrib_nbextensions/nbextensions/code_prettify/2to3": true,
    "jupyter_contrib_nbextensions/nbextensions/python-markdown/main": true,
    "jupyter_contrib_nbextensions/nbextensions/toc2/main": true,
    "calysto/publish/main": true,
    "jupyter_contrib_nbextensions/nbextensions/notify/notify": true,
    "jupyter_contrib_nbextensions/nbextensions/livemdpreview/livemdpreview": true,
    "jupyter_contrib_nbextensions/nbextensions/keyboard_shortcut_editor/main": true,
    "code_prettify/isort": true,
    "jupyter_contrib_nbextensions/nbextensions/hide_header/main": true,
    "jupyter_contrib_nbextensions/nbextensions/collapsible_headings/main": true,
    "jupyter_contrib_nbextensions/nbextensions/contrib_nbextensions_help_item/main": true,
    "jupyter_contrib_nbextensions/nbextensions/code_prettify/code_prettify": true,
    "jupyter_contrib_nbextensions/nbextensions/select_keymap/main": true,
    "jupyter_contrib_nbextensions/nbextensions/zenmode/main": true,
    "lib/python3.7/site-packages//wheel-0.33.0.dist-info/full_width/jupyter/full_width.js": true,
    "/Users/jbragato/virtualenvs/CLEANJUPYTER3/lib/python3.7/site-packages//wheel-0.33.0.dist-info/full_width/jupyter/full_width.js": true,
    "/Users/jbragato/virtualenvs/CLEANJUPYTER3/lib/python3.7/site-packages//wheel-0.33.0.dist-info/full_width/jupyter/": true,
    "full_width": true,
    "jupyter/full_width": true,
    "jupyter_contrib_nbextensions/nbextensions/init_cell/main": true,
    "jupyter_contrib_nbextensions/nbextensions/limit_output/main": true,
    "jupyter_contrib_nbextensions/nbextensions/printview/main": true,
    "jupyter_contrib_nbextensions/nbextensions/snippets_menu/main": true,
    "jupyter_contrib_nbextensions/nbextensions/move_selected_cells/main": true,
    "jupyter_contrib_nbextensions/nbextensions/qtconsole/qtconsole": true,
    "jupyter_contrib_nbextensions/nbextensions/code_prettify/isort": true,
    "jupyter_contrib_nbextensions/nbextensions/export_embedded/main": true,
    "jupyter_contrib_nbextensions/nbextensions/help_panel/help_panel": true
  }
}