{
  "load_extensions": {
    "tree-filter/index": true,
    "jupyterlmod/main": true,
    "jupyter_contrib_nbextensions/nbextensions/tree-filter/index": true,
    "nbextensions_configurator/tree_tab/main": true
  }
}