{
  "version": 1,
  "Comet": {
      "data_directory": "/data/ipynb-notebooks/comet"
   },
  "skeleton": "/data/ipynb-notebooks/skeletons/cs1Untitled.ipynb",
  "Exporter": {
      "preprocessors": [
          "pre_codefolding.CodeFoldingPreprocessor",
          "pre_pymarkdown.PyMarkdownPreprocessor"
          ]
  },
  "NbConvertApp": {
      "postprocessor_class": "post_embedhtml.EmbedPostProcessor"
  },
  "NotebookApp": {
    "allow_root": true,
    "nbserver_extensions": {
        "nbcomet": true,
        "comet_server": true,
        "jupyter_cms": true,
        "jupyter_nbextensions_configurator": true
    },
    "bundlerextensions": {
        "dashboards_server_download": {
            "module_name": "dashboards_bundlers.server_download",
            "group": "download",
            "label": "Jupyter Dashboards Server bundle (.zip)"
            },
        "dashboards_server_upload": {
            "module_name": "dashboards_bundlers.server_upload",
            "group": "deploy",
            "label": "Dashboard on Jupyter Dashboards Server"
            }
    },
    "extra_nbextensions_path": [
        "/root/.jupyter",
        "/root/.local/share/jupyter",
        "/root/.local/jupyter/nbextensions",
        "/root/.ipython/nbextensions",
        "chrome-clipboard/main",
        "code_font_size/code_font_size",
        "code_prettify/2to3",
        "code_prettify/code_prettify",
        "code_prettify/main",
        "codefolding/main",
        "collapsible_headings/main",
        "contrib_nbextensions_help_item/main",
        "execute_time/ExecuteTime",
        "freeze/main",
        "help_panel/help_panel",
        "hide_input/main",
        "highlight_selected_word/main",
        "init_cell/main",
        "jupyter_cms/notebook/main",
        "jupyter_dashboards/notebook/main",
        "jupyter_wysiwyg/index",
        "jupyter-js-widgets/extension",
        "jupyter-lightsaber-yoda/index",
        "jupyter-lightsaber/index",
        "keyboard_shortcut_editor/main",
        "limit_output/main",
        "multi_outputs/main",
        "nb_lynt/cm_addon_lynt",
        "nb_lynt/nb_lynt",
        "nbcomet/main",
        "nbextensions_configurator/config_menu/main",
        "notify/notify",
        "printview/main",
        "python-markdown/main",
        "qtconsole/main",
        "qtconsole/qtconsole",
        "runtools/main",
        "scratchpad/main",
        "search-replace/main",
        "select_keymap/main",
        "snippets_menu/main",
        "snippets/main",
        "theme_toggle",
        "toc2/main",
        "toggle_all_line_numbers/main",
        "varInspector/main",
        "zenmode/main"
        ]
    }

}
