{
  "credSstore" : "osxkeychain",
  "credsStore" : "osxkeychain",
  "HttpHeaders" : {
    "User-Agent" : "Docker-Client/18.09.0 (darwin)"
  },
  "stackOrchestrator" : "swarm",
  "auths" : {
    "https://containers.cisco.com" : {

    },
    "containers.cisco.com" : {

    },
    "https://index.docker.io/v1/" : {

    }
  }
}

