{"errno":-2,"code":"ENOENT","syscall":"lstat","path":"/Users/jbragato/.mongotron","level":"warn","timestamp":"2018-08-22T05:48:20.418Z"}
{"level":"info","message":"Registering keypress combo : cmd-shift-{","timestamp":"2018-08-22T05:48:22.489Z"}
{"level":"info","message":"Registering keypress combo : cmd-shift-}","timestamp":"2018-08-22T05:48:22.491Z"}
{"level":"info","message":"Registering keypress combo : cmd-t","timestamp":"2018-08-22T05:48:22.491Z"}
{"level":"info","message":"Registering keypress combo : cmd-enter","timestamp":"2018-08-22T05:48:22.491Z"}
{"level":"info","message":"Registering keypress combo : cmd-shift-h","timestamp":"2018-08-22T05:48:22.491Z"}
{"level":"info","message":"Connecting to LocalDockerCoral server @ mongodb://127.0.0.1:27017...","timestamp":"2018-08-22T05:49:38.456Z"}
{"level":"info","message":"Connected to LocalDockerCoral server @ mongodb://127.0.0.1:27017","timestamp":"2018-08-22T05:49:38.523Z"}
{"level":"info","message":"keybinding context changed","timestamp":"2018-08-22T05:49:59.732Z"}
{"level":"info","message":"Connecting to LocalDockerCoral server @ mongodb://127.0.0.1:27017...","timestamp":"2018-08-22T05:50:02.487Z"}
{"level":"info","message":"Connected to LocalDockerCoral server @ mongodb://127.0.0.1:27017","timestamp":"2018-08-22T05:50:02.506Z"}
{"level":"info","message":"keybinding context changed","timestamp":"2018-08-22T05:50:10.446Z"}
{"level":"info","message":"keybinding context changed","timestamp":"2018-08-22T05:50:15.083Z"}
{"level":"info","message":"keybinding context changed","timestamp":"2018-08-22T05:50:15.940Z"}
{"level":"info","message":"keybinding context changed","timestamp":"2018-08-22T05:50:17.000Z"}
{"level":"info","message":"keybinding context changed","timestamp":"2018-08-22T05:50:19.541Z"}
{"level":"info","message":"keybinding context changed","timestamp":"2018-08-22T05:50:20.959Z"}
{"level":"info","message":"keybinding context changed","timestamp":"2018-08-22T05:50:22.139Z"}
{"level":"info","message":"keybinding context changed","timestamp":"2018-08-22T05:50:23.352Z"}
{"level":"info","message":"keybinding context changed","timestamp":"2018-08-22T05:50:26.201Z"}
{"level":"info","message":"keybinding context changed","timestamp":"2018-08-22T05:50:27.576Z"}
{"level":"info","message":"keybinding context changed","timestamp":"2018-08-22T05:50:30.823Z"}
{"level":"info","message":"keybinding context changed","timestamp":"2018-08-22T05:50:33.624Z"}
{"level":"info","message":"keybinding context changed","timestamp":"2018-08-22T05:50:35.267Z"}
{"level":"info","message":"keybinding context changed","timestamp":"2018-08-22T05:50:38.486Z"}
{"level":"info","message":"keybinding context changed","timestamp":"2018-08-22T05:50:40.454Z"}
{"level":"info","message":"keybinding context changed","timestamp":"2018-08-22T05:50:44.132Z"}
{"level":"info","message":"keybinding context changed","timestamp":"2018-08-22T05:50:44.357Z"}
{"level":"info","message":"keybinding context changed","timestamp":"2018-08-22T05:50:44.942Z"}
{"level":"info","message":"keybinding context changed","timestamp":"2018-08-22T05:50:46.506Z"}
{"level":"info","message":"Registering keypress combo : cmd-shift-{","timestamp":"2018-08-22T05:50:55.303Z"}
{"level":"info","message":"Registering keypress combo : cmd-shift-}","timestamp":"2018-08-22T05:50:55.305Z"}
{"level":"info","message":"Registering keypress combo : cmd-t","timestamp":"2018-08-22T05:50:55.306Z"}
{"level":"info","message":"Registering keypress combo : cmd-enter","timestamp":"2018-08-22T05:50:55.306Z"}
{"level":"info","message":"Registering keypress combo : cmd-shift-h","timestamp":"2018-08-22T05:50:55.306Z"}
{"level":"info","message":"Connecting to LocalDockerCoral server @ mongodb://127.0.0.1:27017...","timestamp":"2018-08-22T05:51:00.220Z"}
{"level":"info","message":"Connected to LocalDockerCoral server @ mongodb://127.0.0.1:27017","timestamp":"2018-08-22T05:51:00.254Z"}
{"level":"info","message":"keybinding context changed","timestamp":"2018-08-22T05:51:04.297Z"}
{"level":"info","message":"keybinding context changed","timestamp":"2018-08-22T05:51:04.867Z"}
{"level":"info","message":"keybinding context changed","timestamp":"2018-08-22T05:51:07.381Z"}
{"level":"info","message":"keybinding context changed","timestamp":"2018-08-22T05:51:08.701Z"}
{"level":"info","message":"keybinding context changed","timestamp":"2018-08-22T05:51:09.197Z"}
{"level":"info","message":"keybinding context changed","timestamp":"2018-08-22T05:51:10.047Z"}
{"level":"info","message":"keybinding context changed","timestamp":"2018-08-22T05:51:13.649Z"}
{"level":"info","message":"keybinding context changed","timestamp":"2018-08-22T05:51:15.840Z"}
{"level":"info","message":"keybinding context changed","timestamp":"2018-08-22T05:51:23.664Z"}
{"level":"info","message":"keybinding context changed","timestamp":"2018-08-22T05:51:24.789Z"}
{"level":"info","message":"keybinding context changed","timestamp":"2018-08-22T05:51:27.743Z"}
{"level":"info","message":"keybinding context changed","timestamp":"2018-08-22T05:51:31.168Z"}
